<svg width="32" height="32" viewBox="0 0 32 32" fill="none" xmlns="http://www.w3.org/2000/svg">
<circle cx="16" cy="16" r="16" fill="#FFECEC"/>
<rect x="4" y="4" width="24" height="24" rx="4" fill="#FFECEC"/>
<path fill-rule="evenodd" clip-rule="evenodd" d="M8.45131 13.1842C7.23559 11.5632 8.39219 9.25 10.4184 9.25H21.583C23.6092 9.25 24.7658 11.5632 23.55 13.1842C23.0312 13.876 22.7507 14.7175 22.7507 15.5823V22C22.7507 24.6234 20.624 26.75 18.0007 26.75H14.0007C11.3773 26.75 9.25068 24.6234 9.25068 22V15.5823C9.25068 14.7175 8.97019 13.876 8.45131 13.1842ZM10.4184 10.75C9.62826 10.75 9.17723 11.6521 9.65131 12.2842C10.3649 13.2357 10.7507 14.3929 10.7507 15.5823V22C10.7507 23.7949 12.2058 25.25 14.0007 25.25H18.0007C19.7956 25.25 21.2507 23.7949 21.2507 22V15.5823C21.2507 14.3929 21.6364 13.2357 22.35 12.2842C22.8241 11.6521 22.3731 10.75 21.583 10.75H10.4184Z" fill="#FF4242"/>
<path fill-rule="evenodd" clip-rule="evenodd" d="M18.0007 14.25C18.4149 14.25 18.7507 14.5858 18.7507 15V21C18.7507 21.4142 18.4149 21.75 18.0007 21.75C17.5865 21.75 17.2507 21.4142 17.2507 21V15C17.2507 14.5858 17.5865 14.25 18.0007 14.25Z" fill="#FF4242"/>
<path fill-rule="evenodd" clip-rule="evenodd" d="M14.0007 14.25C14.4149 14.25 14.7507 14.5858 14.7507 15L14.7507 21C14.7507 21.4142 14.4149 21.75 14.0007 21.75C13.5865 21.75 13.2507 21.4142 13.2507 21L13.2507 15C13.2507 14.5858 13.5865 14.25 14.0007 14.25Z" fill="#FF4242"/>
<path fill-rule="evenodd" clip-rule="evenodd" d="M11.8333 8.13037C12.2076 7.00743 13.2585 6.25 14.4422 6.25H17.5592C18.7428 6.25 19.7937 7.00743 20.168 8.13037L20.7122 9.76283C20.8432 10.1558 20.6308 10.5805 20.2379 10.7115C19.8449 10.8425 19.4202 10.6301 19.2892 10.2372L18.745 8.60472C18.5749 8.09429 18.0972 7.75 17.5592 7.75H14.4422C13.9042 7.75 13.4265 8.09429 13.2563 8.60472L12.7122 10.2372C12.5812 10.6301 12.1565 10.8425 11.7635 10.7115C11.3706 10.5805 11.1582 10.1558 11.2892 9.76283L11.8333 8.13037Z" fill="#FF4242"/>
</svg>
